Week2: Exploratory Data Analysis
…
Find the heaviest one of 151 pokemons

How many pokemons of which Type1 are "FIRE"

Find the pokemon of which Type1 are "POISON" and has the largest BaseAttack value

library(dplyr)
library(readr)

# Read data
pokemon <- read_csv("data/pokemons.csv")
print(pokemon)

#> # A tibble: 151 x 31
#>     PkMn Identifier EvolvesFrom  EvolvesTo EvoChainID EvoStage
#>    <int>      <chr>       <chr>      <chr>      <int>    <int>
#>  1     1  Bulbasaur           0    Ivysaur          1        1
#>  2     2    Ivysaur   Bulbasaur   Venusaur          1        2
#>  3     3   Venusaur     Ivysaur          0          1        3
#>  4     4 Charmander           0 Charmeleon          2        1
#>  5     5 Charmeleon  Charmander  Charizard          2        2
#>  6     6  Charizard  Charmeleon          0          2        3
#>  7     7   Squirtle           0  Wartortle          3        1
#>  8     8  Wartortle    Squirtle  Blastoise          3        2
#>  9     9  Blastoise   Wartortle          0          3        3
#> 10    10   Caterpie           0    Metapod          4        1
#> # ... with 141 more rows, and 25 more variables: EvolutionPips <chr>,
#> #   BaseStamina <int>, BaseAttack <int>, BaseDefense <int>, Type1 <chr>,
#> #   Type2 <chr>, BaseCaptureRate <dbl>, BaseFleeRate <dbl>,
#> #   CollisionRadiusM <dbl>, CollisionHeightM <dbl>,
#> #   CollisionHeadRadiusM <dbl>, MovementType <chr>, MovementTimerS <int>,
#> #   JumpTimeS <dbl>, AttackTimerS <int>, QuickMoves <chr>,
#> #   CinematicMoves <chr>, PokemonClass <int>, PokedexHeightM <dbl>,
#> #   PokedexWeightKg <dbl>, HeightStdDev <dbl>, WeightStdDev <dbl>,
#> #   CandyFamily <chr>, CandyToEvolve <int>, AnimTime <chr>
…
